[
	{
		"latinName": "Guangxi",
		"subdivisionType": "Autonomous Region",
		"ckjName": "广西",
		"pinyin": "guǎng xī"
	},
	{
		"latinName": "Nei Mongol",
		"subdivisionType": "Autonomous Region",
		"ckjName": "内蒙古",
		"pinyin": "nèi měng gǔ"
	},
	{
		"latinName": "Ningxia",
		"subdivisionType": "Autonomous Region",
		"ckjName": "宁夏",
		"pinyin": "zhù xià"
	},
	{
		"latinName": "Xinjiang",
		"subdivisionType": "Autonomous Region",
		"ckjName": "新疆",
		"pinyin": "xīn jiāng"
	},
	{
		"latinName": "Xizang",
		"subdivisionType": "Autonomous Region",
		"ckjName": "西藏",
		"pinyin": "xī zàng"
	},
	{
		"latinName": "Beijing",
		"subdivisionType": "Municipality",
		"ckjName": "北京",
		"pinyin": "běi jīng"
	},
	{
		"latinName": "Chongqing",
		"subdivisionType": "Municipality",
		"ckjName": "重庆",
		"pinyin": "chóng qìng"
	},
	{
		"latinName": "Shanghai",
		"subdivisionType": "Municipality",
		"ckjName": "上海",
		"pinyin": "shàng hǎi"
	},
	{
		"latinName": "Tianjin",
		"subdivisionType": "Municipality",
		"ckjName": "天津",
		"pinyin": "tiān jīn"
	},
	{
		"latinName": "Anhui",
		"subdivisionType": "Province",
		"ckjName": "安徽",
		"pinyin": "ān huī"
	},
	{
		"latinName": "Fujian",
		"subdivisionType": "Province",
		"ckjName": "福建",
		"pinyin": "fú jiàn"
	},
	{
		"latinName": "Gansu",
		"subdivisionType": "Province",
		"ckjName": "甘肃",
		"pinyin": "gān sù"
	},
	{
		"latinName": "Guangdong",
		"subdivisionType": "Province",
		"ckjName": "广东",
		"pinyin": "guǎng dōng"
	},
	{
		"latinName": "Guizhou",
		"subdivisionType": "Province",
		"ckjName": "贵州",
		"pinyin": "guì zhōu"
	},
	{
		"latinName": "Hainan",
		"subdivisionType": "Province",
		"ckjName": "海南",
		"pinyin": "hǎi nán"
	},
	{
		"latinName": "Hebei",
		"subdivisionType": "Province",
		"ckjName": "河北",
		"pinyin": "hé běi"
	},
	{
		"latinName": "Heilongjiang",
		"subdivisionType": "Province",
		"ckjName": "黑龙江",
		"pinyin": "hēi lóng jiāng"
	},
	{
		"latinName": "Henan",
		"subdivisionType": "Province",
		"ckjName": "河南",
		"pinyin": "hé nán"
	},
	{
		"latinName": "Hubei",
		"subdivisionType": "Province",
		"ckjName": "湖北",
		"pinyin": "hú běi"
	},
	{
		"latinName": "Hunan",
		"subdivisionType": "Province",
		"ckjName": "湖南",
		"pinyin": "hú nán"
	},
	{
		"latinName": "Jiangsu",
		"subdivisionType": "Province",
		"ckjName": "江苏",
		"pinyin": ""
	},
	{
		"latinName": "Jiangxi",
		"subdivisionType": "Province",
		"ckjName": "江西",
		"pinyin": ""
	},
	{
		"latinName": "Jilin",
		"subdivisionType": "Province",
		"ckjName": "吉林",
		"pinyin": ""
	},
	{
		"latinName": "Liaoning",
		"subdivisionType": "Province",
		"ckjName": "辽宁",
		"pinyin": ""
	},
	{
		"latinName": "Qinghai",
		"subdivisionType": "Province",
		"ckjName": "青海",
		"pinyin": ""
	},
	{
		"latinName": "Shaanxi",
		"subdivisionType": "Province",
		"ckjName": "陕西",
		"pinyin": ""
	},
	{
		"latinName": "Shandong",
		"subdivisionType": "Province",
		"ckjName": "山东",
		"pinyin": ""
	},
	{
		"latinName": "Shanxi",
		"subdivisionType": "Province",
		"ckjName": "山西",
		"pinyin": ""
	},
	{
		"latinName": "Sichuan",
		"subdivisionType": "Province",
		"ckjName": "四川",
		"pinyin": ""
	},
	{
		"latinName": "Taiwan",
		"subdivisionType": "Province",
		"ckjName": "台湾",
		"pinyin": ""
	},
	{
		"latinName": "Yunnan",
		"subdivisionType": "Province",
		"ckjName": "云南",
		"pinyin": ""
	},
	{
		"latinName": "Zhejiang",
		"subdivisionType": "Province",
		"ckjName": "浙江",
		"pinyin": ""
	},
	{
		"latinName": "Hong Kong",
		"subdivisionType": "Special Administrative Region",
		"ckjName": "香港",
		"pinyin": ""
	},
	{
		"latinName": "Macao",
		"subdivisionType": "Special Administrative Region",
		"ckjName": "澳门",
		"pinyin": ""
	}
]
