Lake Michigan	audio-great-lake_856530cf-0812-4a92-8ad4-0397f5bc860a	lake	44.09952486861252	-86.63217999080452	4	['/_geojson-great-lakes_lake-michigan.js']	geography great-lakes
Lake Erie	audio-great-lake_91789e25-2ab4-4438-ab91-593f23e355e5	lake	42.161568092789835	-81.41793035351795	4	['/_geojson-great-lakes_lake-erie.js']	geography great-lakes
Lake St. Clair	audio-great-lake_1e27bfe6-2909-4792-8e43-1f5eeb26499c	lake	42.46808087246035	-82.69107459856332	4	['/_geojson-great-lakes_lake-st.-clair.js']	geography great-lakes
Lake Superior	audio-great-lake_1d791642-16b4-424d-bced-385fbfa1b806	lake	47.47398240697	-87.77260655765554	4	['/_geojson-great-lakes_lake-superior.js']	geography great-lakes
Lake Huron	audio-great-lake_b3e33abe-0525-4a79-bba9-9c451842468e	lake	44.90068184478148	-82.42399697573497	4	['/_geojson-great-lakes_lake-huron.js']	geography great-lakes
Lake Ontario	audio-great-lake_c45e81b2-47e2-4bf7-8b3b-b40d4facdf4f	lake	43.7183291164847	-77.62997885208624	4	['/_geojson-great-lakes_lake-ontario.js']	geography great-lakes
